[

        {
        		"id":"1",
        		"drawable":"drawable/image01",
        		"thumb":"drawable/image01thumb",
                "opera":"SELF PORTRAIT",
                "dettagli":"<p><b>SELF PORTRAIT</b></p><p><b>1855 - Oil on paper applied on canvas </b></p><p>Self-portrait is an oil painting on canvas 81 x 64.5 cm made between 1854 and 1855 by the French painter Edgar Degas.
				It is housed in the Mus\u00e8e d'Orsay in Paris.
				In this painting, which began at the age of twenty, Degas is represented as a staid young high society, whose face captures an aura of youthful innocence, which disappears in the later \"Self-portrait\", where the painter depicts as a casual \"dandy\" Parisian hat and gloves in hand.</p>"

        },
        
         {
        		"id":"2",
        		"drawable":"drawable/image06",
        		"thumb":"drawable/image06thumb",
                "opera":"HILAIRE DEGAS",
                "dettagli":"<p><b>HILAIRE DEGAS</b></p><p><b>1857 - Oil on canvas </b></p><p>Portrait of Hilaire de Gas (Hilaire de Gas) is an oil painting on canvas by Edgar Degas, 53 x 41 cm, preserved at the Mus\u00e8e d'Orsay in Paris. The work is dated in the upper right corner, under the frame, with the expression: Capodimonte 1857.
				In fact, in July 1857, the painter is invited by his grandfather to his villa at Capodimonte, near Naples, where he had fled since the time of the French Revolution, and where he made his fortune becoming banker. E was born in Naples and the artist's father, Auguste Degas. At the time of this portrait of his grandfather Edgar Degas had eighty-seven years.
				Hilaire Degas certainly not lacking in behavior: for the occasion wearing a white vest, gray pants and a black jacket, which emphasize its distinct appearance. However, the expression a bit 'tired of your face and stick his knees betray the signs of passing time.</p>"

                
        },
        
  
        {
        		"id":"3",
        		"drawable":"drawable/image11",
        		"thumb":"drawable/image11thumb",
        		"opera":"DEGAS WITH CARBONCINI UTENSILI",
                "dettagli":"<p><b>DEGAS  WITH CARBONCINI UTENSILI</b></p><p><b>1863 - Oil on canvas. </b></p><p>The painting Degas with carboncini utensili is an oil painting on canvas conserved at the Mus\u00e8e d'Orsay in Paris and created by Edgar Degas in 1863. The work is very similar to Self-Portrait with de \u00e8varistes Valernse, work carried out two years later, as represented character takes up the classic pose of Ingres and refers to the classical figures of Rembrandt. 
				The painting is considered classicist especially for laying assumed by the painter in the work, the colors and lights.
				Degas with portacarboncino is a very important point for the artistic life of the painter as it is considered one of his first successful works, from here on out will begin a series of paintings Degas very similar and studied in terms of style and anatomy.</p>"

  		}
        
 ]