[

        {
	        	"id":"1",
	        	"drawable":"drawable/image07",
	        	"thumb":"drawable/image07thumb",
	        	"numSerie":"1",
				"tecnica":"Pastel on monotype",
	        	"stanza":"10",
		 		"anno":"1876",
	            "opera":"CROUCHING NUDE SEEN FROM BEHIND",
	            "indizio1":"The painter uses the technique \"monotype\" typical of the Renaissance",
	            "indizio2":"The work is composed mainly by dark colors and dark",
	            "indizio3":"The position of the character in the foreground creates a lot of depth to the work",
	            "indizio4":"In the work depicts a single figure",
	            "indizio5":"The figure work is a woman and is located in the lower left"
                
 		},
 		
 		{
        		"id":"2",
        		"drawable":"drawable/image08",
        		"thumb":"drawable/image08thumb",
        		"numSerie":"1",
				"tecnica":"Oil on canvas",
        		"stanza":"7",
	 			"anno":"1866",
                "opera":"PORTRAIT OF A WOMAN WITH PORCELAIN VASE",
                "indizio1":"The work represents a daily moment in a middle-class",
                "indizio2":"The work is divided into two floors",
                "indizio3":"The work represents a place indoors, probably a living room",
                "indizio4":"Represented in the figure wearing a suit of a primary color",
                "indizio5":"In the work, the foreground object is a vase"
                
 		},
 		
 		{
        		"id":"3",
        		"drawable":"drawable/image09",
        		"thumb":"drawable/image09thumb",
        		"numSerie":"1",
				"tecnica":"Pastel and charcoal on gray beige paper",
        		"stanza":"7",
	 			"anno":"1882",
                "opera":"YOUNG WOMAN TRYING HER RIBBON HAT",
                "indizio1":"The figure represented is willing to three-quarters",
                "indizio2":"The figure represented in the looking to the right",
                "indizio3":"The colors used in the work are black and white",
                "indizio4":"Hands of the main figure are well detailed and painted in the traditional way",
                "indizio5":"The work represents a woman"
                
 		},
 		
 		{
        		"id":"4",
        		"drawable":"drawable/image12",
        		"thumb":"drawable/image12thumb",
        		"numSerie":"1",
				"tecnica":"Oil on canvas",
        		"stanza":"7",
	 			"anno":"1869",
                "opera":"WOMAN LOOKING IN THE MIRROR",
                "indizio1":"The work is perfectly divided into two part in a vertical manner",
                "indizio2":"The work is composed by a person even if the people in the painting are two",
                "indizio3":"The work is balanced between dark colors and shades of white",
                "indizio4":"The work represents a woman",
                "indizio5":"The woman is represented in the front of a mirror"
                
		 }
 				
        
]