[

        {
        		"id":"1",
        		"drawable":"drawable/image29",
        		"thumb":"drawable/image29thumb",
                "opera":"SCENE OF WAR IN THE MIDDLE AGES",
                "dettagli":"<p><b>SCENE OF WAR IN THE MIDDLE AGES</b></p><p><b>1855 - Oil on canvas. </b></p><p>Until 1865, when Scene of War in the Middle Ages, was presented at the Salon, Degas wanted to be a history painter in the tradition of the ''grand genre'', which took events from history, the Bible or Greek and Roman mythology as subjects. 
				This desire explains his study of many different poses, each a potential element to integrate into the final composition.
				In Scene of War in the Middle Ages, the event described by Degas remains uncertain: for a long time it was thought to be a transposition into the past of an allegorical scene (not a drop of blood is spilled) of the violence suffered by the women of New Orleans during the American Civil War. 
				Although Degas might well have known of these atrocities through his maternal family who lived there, his work is above all an illustration of the brutality and inhumanity of men towards women in times of war.
				His last history painting, Scene of War in the Middle Ages, whose matt appearance pays tribute to the fresco painters of the 15th century, marks a turning point in Degas' work.
				The final work and the collection of preparatory drawings that accompanies it, reveal both the assimilation of many different sources of inspiration, including Goya, Delacroix and Puvis de Chavannnes, and a new focus on the body, that he subsequently developed in his contemporary studies of women bathing. In fact he picked up the same poses with the same unsparing observation but in a completely different context, and with the same unsparing observation. The transition towards Realism is particularly striking in his studies for Interior, also calledThe Rape, his most important genre painting, created at the end of the 1860s.
				</p>"
                
        },
        
         {
        		"id":"2",
        		"drawable":"drawable/image30",
        		"thumb":"drawable/image30thumb",
                "opera":"SEMIRAMIS THAT BUILDS BABYLON",
                "dettagli":"<p><b>SEMIRAMIDE THAT BUILDS BABYLON</b></p><p><b>1855 - Oil on canvas. </b></p><p>Started about 1860, Semiramis Building Babylon stayed in Degas' studio until his death. The painting shows a mythological scene: Semiramis, the Queen of Assyria and the founder of Babylon, is standing on one of the banks of the Euphrates River contemplating the construction of the city which became one of the Seven Wonders of the World.
				Some details in the composition suggest that Degas carried out historical research for it. The chariot on the far right and the queen's hairstyle seem to be iconographic elements taken from a study of Assyrian reliefs which had recently arrived in the Louvre. Several drawings now in the Graphic Arts Department indicate Degas' preparatory work for this history painting.
				In accordance with the neoclassical academic tradition, the figures were drawn separately, at first nude, and then draped with a care reminiscent of the masters of the Italian Renaissance. It was once thought that Degas had taken his inspiration from Rossini's opera on the theme, premiered in Paris in July 1860. The paintings of Piero della Francesco that Degas had seen in Arezzo in the late 1850s are a more likely influence, as if the masters of the past held the key to the salvation of history painting.
				Indeed, Degas executed several history paintings, including this one, between 1860 and 1865, some probably on the prompting of Gustave Moreau who was a close friend at the time. Querying the relevance of this genre in contemporary painting, he has here tried to combine historic reconstitution based on copies of fragments with a plastic approach that assimilates the pictorial codes learnt during his training under Ingres.
				</p>"
                
        }
  
        
 ]