[
	{
	 "id":"1",
	 "img":"drawable/image01",
	 "thumb":"drawable/image01thumb",
	 "titolo":"SELF PORTRAIT",
	 "tecnica":"Oil on canvas",
	 "stanza":"1",
	 "anno":"1855",
	 "orientamento":"v"
	},	
	{
	 "id":"2",
	 "img":"drawable/image02",
	 "thumb":"drawable/image02thumb",
	 "titolo":"DANCER WITH BOUQUET",
	 "tecnica":"Oil painting essence and pastel on canvas",
	 "stanza":"9",
	 "anno":"1877",
	 "orientamento":"v"
	},	
	{
	 "id":"3",
	 "img":"drawable/image03",
	 "thumb":"drawable/image03thumb",
	 "titolo":"DANCER AGED 14",
	 "tecnica":"Patinated bronze, tutu tulle, pink satin ribbon in the hair, wooden base",
	 "stanza":"5",
	 "anno":"1921-1931",
	 "orientamento":"v"
	},	
	{
	 "id":"4",
	 "img":"drawable/image04",
	 "thumb":"drawable/image04thumb",
	 "titolo":"DANCER WITH BOUQUET WHILE GREETING",
	 "tecnica":"Oil on canvas",
	 "stanza":"8",
	 "anno":"1877-1878",
	 "orientamento":"v"
	},
	{
	 "id":"5",
	 "img":"drawable/image05",
	 "thumb":"drawable/image05thumb",
	 "titolo":"WOMAN AT THE TOILET DRYING HER FEETS",
	 "tecnica":"Pastel on cardboard",
	 "stanza":"11",
	 "anno":"1886",
	 "orientamento":"v"
	},
	{
	 "id":"6",
	 "img":"drawable/image06",
	 "thumb":"drawable/image06thumb",
	 "titolo":"HILAIRE DEGAS",
	 "tecnica":"Oil on canvas",	 
	 "stanza":"1",
	 "anno":"1857",
	 "orientamento":"v"
	},	
	{
	 "id":"7",
	 "img":"drawable/image07",
	 "thumb":"drawable/image07thumb",
	 "titolo":"CROUCHING NUDE SEEN BEHIND",
	 "tecnica":"Pastel on Monotype",
	 "stanza":"10",
	 "anno":"1876",
	 "orientamento":"v"
	},
	{
	 "id":"8",
	 "img":"drawable/image08",
	 "thumb":"drawable/image08thumb",
	 "titolo":"PORTRAIT OF A WOMAN WITH PORCELAIN VASE",
	 "tecnica":"Oil on canvas",
	 "stanza":"7",
	 "anno":"1872",
	 "orientamento":"v"
	},	
	{
	 "id":"9",
	 "img":"drawable/image09",
	 "thumb":"drawable/image09thumb",
	 "titolo":"YOUNG WOMAN TYRING HER RIBBON HAT",
	 "tecnica":"Pastel and charcoal on gray beige paper",
	 "stanza":"7",
	 "anno":"1882",
	 "orientamento":"v"
	},	
	{
	 "id":"10",
	 "img":"drawable/image10",
	 "thumb":"drawable/image10thumb",
	 "titolo":"SELF PORTRAIT WITH EVARISTES DE VALERNES",
	 "tecnica":"Oil on canvas",
	 "stanza":"6",
	 "anno":"1865",
	 "orientamento":"v"
	},	
	{
	 "id":"11",
	 "img":"drawable/image11",
	 "thumb":"drawable/image11thumb",
	 "titolo":"DEGAS WITH CARBONCINI UTENSILI",
	 "tecnica":"Oil on canvas",
	 "stanza":"1",
	 "anno":"1863",
	 "orientamento":"v"
	},	
	{
	 "id":"12",
	 "img":"drawable/image12",
	 "thumb":"drawable/image12thumb",
	 "titolo":"MADAME JEANTAUD MIRRORING",
	 "tecnica":"Oil on canvas",
	 "stanza":"7",
	 "anno":"1869",
	 "orientamento":"v"
	},
	{
	 "id":"13",
	 "img":"drawable/image13",
	 "thumb":"drawable/image13thumb",
	 "titolo":"THE BELLELLI FAMILY",
	 "tecnica":"Olio su carta applicato su tela",
	 "stanza":"4",
	 "anno":"1858-1869",
	 "orientamento":"v"
	},		
	{
	 "id":"14",
	 "img":"drawable/image14",
	 "thumb":"drawable/image14thumb",
	 "titolo":"WOMEN OUTSIDE A CAFE IN THE EVENING",
	 "tecnica":"Monotype rehearsed in pastel",
	 "stanza":"7",
	 "anno":"1877",
	 "orientamento":"h"
	},		
	{
	 "id":"15",
	 "img":"drawable/image15",
	 "thumb":"drawable/image15thumb",
	 "titolo":"AFTER THE BATH WOMAN DRYING HEAR HEAD",
	 "tecnica":"Pastello",
	 "stanza":"11",
	 "anno":"1898",
	 "orientamento":"v"
	},		
	{
	 "id":"16",
	 "img":"drawable/image16",
	 "thumb":"drawable/image16thumb",
	 "titolo":"FEMME ASSISE SUR LE REBORD D'UNE BAIGNOIRE",
	 "tecnica":"Pastel",
	 "stanza":"10",
	 "anno":"1880",
	 "orientamento":"v"
	},		
	{
	 "id":"17",
	 "img":"drawable/image17",
	 "thumb":"drawable/image17thumb",
	 "titolo":"LE PEDICURE",
	 "tecnica":"Oil painting and essence on paper mounted on canvas ",
	 "stanza":"11",	 
	 "anno":"1873",
	 "orientamento":"v"
	},		
	{
	 "id":"18",
	 "img":"drawable/image18",
	 "thumb":"drawable/image18thumb",
	 "titolo":"THE TUB",
	 "tecnica":"Oil on canvas",
	 "stanza":"10",	 
	 "anno":"1886",
	 "orientamento":"v"
	},					
	{
	 "id":"19",
	 "img":"drawable/image19",
	 "thumb":"drawable/image19thumb",
	 "titolo":"LORENZO PAGANS AND AUGUSTE DEGAS",
	 "tecnica":"Oil on canvas",
	 "stanza":"6",
	 "anno":"1871-1872",
	 "orientamento":"v"
	},
	{
	 "id":"20",
	 "img":"drawable/image20",
	 "thumb":"drawable/image20thumb",
	 "titolo":"PORTRAIT OF A YOUNG WOMAN",
	 "tecnica":"Oil on canvas",
	 "stanza":"7",
	 "anno":"1876",
	 "orientamento":"v"
	}
	
]