[
		{
        		"id":"1",
        		"drawable":"drawable/image18",
        		"thumb":"drawable/image18thumb",
        		"numSerie":"1",
				"tecnica":"Oil on canvas",
        		"stanza":"10",
	 			"anno":"1866",
                "opera":"THE TUB",
                "indizio1":"The artist at that time was called a misogynist after painting this work",
                "indizio2":"In this work the artist is interested in the movement and the human body",
                "indizio3":"The work represents an everyday scene",
                "indizio4":"The work is composed of warm colors",
                "indizio5":"The work represents a woman"
                
 		},
 		
 		{
        		"id":"2",
        		"drawable":"drawable/image20",
        		"thumb":"drawable/image20thumb",
        		"numSerie":"1",
				"tecnica":"Oil on canvas",
        		"stanza":"7",
	 			"anno":"1876",
                "opera":"PORTRAIT OF A YOUNG WOMAN",
                "indizio1":"The figure represented in the part of the artist's family",
                "indizio2":"The look of the figure represented is facing right",
                "indizio3":"The figure represented is the aunt of the artist",
                "indizio4":"The work has a predominance of warm colors",
                "indizio5":"The work is a portrait"
                
 		},
 		
 		{
        		"id":"3",
        		"drawable":"drawable/image21",
        		"thumb":"drawable/image21thumb",
        		"numSerie":"1",
				"tecnica":"Oil on canvas",
        		"stanza":"8",
	 			"anno":"1874",
                "opera":"BALLET",
                "indizio1":"The work represents a scene in the theater",
                "indizio2":"The part in the foreground was painted in more detail while the background was painted so little detailed",
                "indizio3":"The posture of the main character creates a diagonal in the painting",
                "indizio4":"The top left is composed of very warm colors",
                "indizio5":"The character in the foreground is a dancer"
                
		 },
		 
		 {
        		"id":"4",
        		"drawable":"drawable/image23",
        		"thumb":"drawable/image23thumb",
        		"numSerie":"1",
				"tecnica":"Pastel on cardboard",
        		"stanza":"11",
	 			"anno":"1866",
                "opera":"TWO BATHERS ON THE GRASS",
                "indizio1":"The work invokes a vision in a dream",
                "indizio2":"The work represents an everyday situation",
                "indizio3":"The work having been designed, is reduced to the essence of the form, encroaching into abstraction.",
                "indizio4":"The work is composed by a predominance of green",
                "indizio5":"The work depicts two women"
                
 			}	
        
        
]